[
  "Technology",
  "Science",
  "Health",
  "Lifestyle",
  "Travel",
  "Food",
  "Education",
  "Business",
  "Finance",
  "Entertainment",
  "Sports",
  "Politics",
  "Environment",
  "Fashion",
  "Art",
  "History",
  "Culture",
  "DIY",
  "Personal Development",
  "Relationships",
  "Parenting",
  "Fitness",
  "Gaming",
  "Automotive",
  "Real Estate",
  "Gardening",
  "Pets",
  "Books",
  "Movies",
  "Music",
  "TV Shows",
  "Photography",
  "Writing",
  "Poetry",
  "Comics",
  "Animation",
  "Crafts",
  "Design",
  "Technology Reviews",
  "Gadget Reviews",
  "App Reviews",
  "Software",
  "Hardware",
  "Programming",
  "Web Development",
  "Mobile Development",
  "Data Science",
  "Artificial Intelligence",
  "Machine Learning",
  "Robotics",
  "Virtual Reality",
  "Augmented Reality",
  "Blockchain",
  "Cryptocurrency",
  "Cybersecurity",
  "Startups",
  "Entrepreneurship",
  "Marketing",
  "Social Media",
  "SEO",
  "Content Marketing",
  "E-commerce",
  "Productivity",
  "Leadership",
  "Management",
  "Human Resources",
  "Recruitment",
  "Career Advice",
  "Job Market",
  "Remote Work",
  "Work-Life Balance",
  "Mental Health",
  "Nutrition",
  "Wellness",
  "Mindfulness",
  "Meditation",
  "Yoga",
  "Exercise",
  "Weight Loss",
  "Bodybuilding",
  "Running",
  "Cycling",
  "Hiking",
  "Camping",
  "Adventure Sports",
  "Extreme Sports",
  "Water Sports",
  "Winter Sports",
  "Motorsports",
  "Esports",
  "Football",
  "Basketball",
  "Baseball",
  "Soccer",
  "Tennis",
  "Golf",
  "Cricket",
  "Hockey",
  "Rugby",
  "Martial Arts",
  "Boxing",
  "Wrestling",
  "MMA",
  "Athletics",
  "Olympics",
  "World Cup",
  "Travel Guides",
  "Travel Tips",
  "Destinations",
  "Cultural Experiences",
  "Adventure Travel",
  "Budget Travel",
  "Luxury Travel",
  "Solo Travel",
  "Group Travel",
  "Family Travel",
  "Road Trips",
  "Air Travel",
  "Train Travel",
  "Cruises",
  "Travel Photography",
  "Travel Videos",
  "Local Cuisine",
  "Recipes",
  "Cooking Tips",
  "Baking",
  "Healthy Eating",
  "Vegan",
  "Vegetarian",
  "Gluten-Free",
  "Food Reviews",
  "Restaurant Reviews",
  "Street Food",
  "World Cuisine",
  "Wine",
  "Beer",
  "Cocktails",
  "Homebrewing",
  "Tea",
  "Coffee",
  "Education News",
  "Study Tips",
  "Online Learning",
  "Homeschooling",
  "Language Learning",
  "Educational Technology",
  "College Life",
  "Scholarships",
  "Career Education",
  "Vocational Training",
  "Adult Education",
  "Lifelong Learning",
  "Environmental News",
  "Climate Change",
  "Sustainability",
  "Renewable Energy",
  "Conservation",
  "Wildlife",
  "Pollution",
  "Green Living",
  "Zero Waste",
  "Recycling",
  "Energy Efficiency",
  "Fashion Trends",
  "Style Tips",
  "Beauty Tips",
  "Makeup",
  "Skincare",
  "Haircare",
  "Nail Art",
  "Accessories",
  "Jewelry",
  "Footwear",
  "Fashion Shows",
  "Designer Brands",
  "Street Style",
  "Vintage Fashion",
  "Thrift Shopping",
  "Art Exhibitions",
  "Art History",
  "Modern Art",
  "Contemporary Art",
  "Art Techniques",
  "Art Tutorials",
  "Sculpture",
  "Painting",
  "Drawing",
  "Digital Art",
  "Art Supplies",
  "Art Events",
  "Museum Visits",
  "Crafting",
  "Sewing",
  "Knitting",
  "Crocheting",
  "Quilting",
  "Scrapbooking",
  "Paper Crafts",
  "Woodworking",
  "Metalworking",
  "Jewelry Making",
  "Pottery",
  "Ceramics",
  "Glass Art",
  "Calligraphy",
  "Lettering",
  "Typography",
  "Graphic Design",
  "UX Design",
  "UI Design",
  "Interior Design",
  "Architecture",
  "Landscaping",
  "Urban Planning",
  "Home Improvement",
  "Renovation",
  "Decorating",
  "Home Organization",
  "Cleaning Tips",
  "Home Security",
  "Smart Home",
  "Real Estate Investing",
  "Property Management",
  "Mortgage Advice",
  "Home Buying",
  "Home Selling",
  "Renting",
  "Apartment Living",
  "Tiny Houses",
  "Sustainable Living",
  "Off-Grid Living",
  "Minimalism",
  "Decluttering",
  "Frugal Living",
  "Personal Finance",
  "Budgeting",
  "Saving Money",
  "Investing",
  "Stock Market",
  "Retirement Planning",
  "Taxes",
  "Insurance",
  "Debt Management",
  "Credit Cards",
  "Loans",
  "Banking",
  "Financial News",
  "Cryptocurrency Investing",
  "NFTs",
  "Metaverse",
  "Futurism",
  "Space Exploration",
  "Astronomy",
  "Astrophysics",
  "Quantum Physics",
  "Theoretical Physics",
  "Chemistry",
  "Biology",
  "Genetics",
  "Evolution",
  "Ecology",
  "Marine Biology",
  "Zoology",
  "Botany",
  "Microbiology",
  "Biotechnology",
  "Pharmacology",
  "Medicine",
  "Healthcare Industry",
  "Medical Research",
  "Public Health",
  "Epidemiology",
  "Infectious Diseases",
  "Mental Illness",
  "Psychology",
  "Neuroscience",
  "Psychiatry",
  "Counseling",
  "Therapy",
  "Self-Help",
  "Motivation",
  "Inspiration",
  "Product Reviews",
  "Unboxing",
  "Shopping Guides",
  "Gift Ideas",
  "Holiday Shopping",
  "Seasonal Trends",
  "Sales and Discounts",
  "Online Shopping",
  "Retail",
  "Consumer Electronics",
  "Home Appliances",
  "Kitchen Gadgets",
  "Fashion Accessories",
  "Beauty Products",
  "Skincare Products",
  "Hair Products",
  "Fragrances",
  "Jewelry Reviews",
  "Watch Reviews",
  "Automotive Reviews",
  "Car Maintenance",
  "Car Customization",
  "Motorcycle Reviews",
  "Bicycle Reviews",
  "Scooters",
  "Electric Vehicles",
  "Public Transportation",
  "Traffic Safety",
  "Urban Mobility",
  "Sustainable Transportation",
  "Travel Deals",
  "Travel Insurance",
  "Travel Apps",
  "Travel Gear",
  "Travel Stories",
  "Travel Tips and Tricks",
  "Packing Tips",
  "Travel Safety",
  "Travel Scams",
  "Travel Photography Tips",
  "Travel Blogging",
  "Travel Vlogging",
  "Backpacking",
  "Hostels",
  "Airbnb",
  "Hotel Reviews",
  "Luxury Resorts",
  "Vacation Rentals",
  "Destination Weddings",
  "Honeymoons",
  "Traveling with Pets",
  "Traveling with Kids",
  "Senior Travel",
  "Accessible Travel",
  "Adventure Tours",
  "Eco-Tourism",
  "Volunteer Travel",
  "Culinary Travel",
  "Wine Tours",
  "Food Festivals",
  "Farm-to-Table",
  "Food Sustainability",
  "Urban Farming",
  "Aquaponics",
  "Hydroponics",
  "Permaculture",
  "Organic Gardening",
  "Herb Gardening",
  "Vegetable Gardening",
  "Flower Gardening",
  "Landscaping Ideas",
  "Garden Design",
  "Garden Maintenance",
  "Pest Control",
  "Composting",
  "Soil Health",
  "Plant Care",
  "Indoor Gardening",
  "Greenhouses",
  "Garden Tools",
  "Garden Decor",
  "Wildlife Gardening",
  "Bird Watching",
  "Beekeeping",
  "Chicken Keeping",
  "Small Livestock",
  "Homesteading",
  "Survival Skills",
  "Prepping",
  "Outdoor Skills",
  "Foraging",
  "Hunting",
  "Fishing",
  "Archery",
  "Shooting Sports",
  "Camping Gear",
  "Camping Tips",
  "Bushcraft",
  "Outdoor Cooking",
  "RV Living",
  "Van Life",
  "Tiny House Living",
  "Sustainable Architecture",
  "Green Building",
  "Eco-Friendly Materials",
  "Energy Efficiency",
  "Water Conservation",
  "Renewable Energy Systems",
  "Solar Power",
  "Wind Power",
  "Geothermal Energy",
  "Hydropower",
  "Electric Vehicles",
  "Energy Storage",
  "Smart Grids",
  "Climate Policy",
  "Activism",
  "Sustainable Business",
  "Corporate Social Responsibility",
  "Social Impact",
  "Fair Trade",
  "Ethical Fashion",
  "Upcycling",
  "Waste Reduction",
  "Plastic-Free Living",
  "Zero Waste Fashion",
  "Personal Finance Tips",
  "Investment Strategies",
  "Tax Planning",
  "Retirement Savings",
  "Real Estate Market",
  "Home Renovation Tips",
  "Property Management Tips",
  "Tech Startups",
  "Freelancing Tips",
  "Digital Nomad Life",
  "Pet Care Tips",
  "Pet Training",
  "Exotic Pets",
  "Pet Nutrition",
  "Pet Adoption",
  "Pet Health",
  "Pet Accessories",
  "Pet Grooming",
  "Dog Training",
  "Cat Behavior",
  "Fishkeeping",
  "Reptile Care",
  "Bird Care",
  "Small Mammal Care",
  "Rabbit Care",
  "Guinea Pig Care",
  "Hamster Care",
  "Ferret Care",
  "Pet Travel",
  "Pet Boarding",
  "Pet Sitting",
  "Pet-Friendly Destinations",
  "Pet Rescue",
  "Animal Shelters",
  "Fostering Pets",
  "Pet Breeding",
  "Pet Photography",
  "Pet Fashion",
  "Pet Competitions",
  "Pet Shows",
  "Service Animals",
  "Therapy Animals",
  "Animal Welfare",
  "Animal Rights",
  "Wildlife Conservation",
  "Endangered Species",
  "Marine Conservation",
  "Forest Conservation",
  "Climate Activism",
  "Green Technologies",
  "Electric Cars",
  "Hybrid Cars",
  "Autonomous Vehicles",
  "Space Technology",
  "Satellite Technology",
  "Space Missions",
  "Space Tourism",
  "Cosmology",
  "Space Policy",
  "Rocket Science",
  "Mars Exploration",
  "Lunar Missions",
  "Astrobiology",
  "Exoplanets",
  "Astronaut Training",
  "Space Stations",
  "Space Agencies",
  "Private Space Companies",
  "Artificial Intelligence Ethics",
  "AI in Healthcare",
  "AI in Education",
  "AI in Business",
  "AI in Entertainment",
  "Machine Learning Algorithms",
  "Deep Learning",
  "Natural Language Processing",
  "Computer Vision",
  "AI Research",
  "AI Applications",
  "AI Tools",
  "AI Startups",
  "AI Innovation",
  "AI in Agriculture",
  "AI in Finance",
  "AI in Transportation",
  "AI in Security",
  "AI in Manufacturing",
  "AI in Retail",
  "AI in Marketing",
  "AI in Customer Service",
  "AI and Society",
  "AI and Jobs",
  "AI and Ethics",
  "AI and Privacy",
  "AI and Bias",
  "AI Regulation",
  "AI and Creativity",
  "AI and Education",
  "AI and Law",
  "AI and Art",
  "AI and Music",
  "AI and Literature",
  "AI and Gaming",
  "AI and Robotics",
  "AI and Automation",
  "AI and Healthcare",
  "AI and Climate Change",
  "AI and Environment",
  "AI and Economics",
  "AI and Politics",
  "AI and Philosophy",
  "AI and Cognitive Science",
  "AI and Neuroscience",
  "AI and Psychology",
  "AI and Sociology",
  "AI and Anthropology",
  "AI and History",
  "AI and Linguistics",
  "AI and Language",
  "AI and Communication",
  "AI and Media",
  "AI and Journalism",
  "AI and Public Relations",
  "AI and Advertising",
  "AI and Branding",
  "AI and Consumer Behavior",
  "AI and Market Research",
  "AI and Product Development",
  "AI and Supply Chain",
  "AI and Logistics",
  "AI and Transportation",
  "AI and Urban Planning",
  "AI and Smart Cities",
  "AI and Home Automation",
  "AI and IoT",
  "AI and Edge Computing",
  "AI and Cloud Computing",
  "AI and Quantum Computing",
  "AI and Blockchain",
  "AI and Cybersecurity",
  "AI and Data Science",
  "AI and Big Data",
  "AI and Data Analytics",
  "AI and Data Management",
  "AI and Data Privacy",
  "AI and Data Ethics",
  "AI and Data Security",
  "AI and Machine Learning",
  "AI and Deep Learning",
  "AI and Neural Networks",
  "AI and Cognitive Computing",
  "AI and Natural Language Understanding",
  "AI and Speech Recognition",
  "AI and Text Analysis",
  "AI and Image Processing",
  "AI and Computer Vision",
  "AI and Augmented Reality",
  "AI and Virtual Reality",
  "AI and Mixed Reality",
  "AI and Autonomous Systems",
  "AI and Robotics",
  "AI and Drones",
  "AI and Self-Driving Cars",
  "AI and Space Exploration",
  "AI and Astronomy",
  "AI and Physics",
  "AI and Chemistry",
  "AI and Biology",
  "AI and Medicine",
  "AI and Genetics",
  "AI and Biotechnology",
  "AI and Agriculture",
  "AI and Food Science",
  "AI and Nutrition",
  "AI and Health",
  "AI and Fitness",
  "AI and Sports",
  "AI and Education",
  "AI and Learning",
  "AI and Teaching",
  "AI and Training",
  "AI and Development",
  "AI and Innovation",
  "AI and Research",
  "AI and Creativity",
  "AI and Art",
  "AI and Music",
  "AI and Literature",
  "AI and Film",
  "AI and TV",
  "AI and Media",
  "AI and Games",
  "AI and Virtual Assistants",
  "AI and Chatbots",
  "AI and Smart Home",
  "AI and Personal Assistants",
  "AI and Work",
  "AI and Productivity",
  "AI and Collaboration",
  "AI and Project Management",
  "AI and Time Management",
  "AI and Decision Making",
  "AI and Problem Solving",
  "AI and Critical Thinking",
  "AI and Creativity",
  "AI and Innovation",
  "AI and Entrepreneurship",
  "AI and Startups",
  "AI and Business",
  "AI and Finance",
  "AI and Marketing",
  "AI and Sales",
  "AI and Customer Service",
  "AI and HR",
  "AI and Recruitment",
  "AI and Training",
  "AI and Management",
  "AI and Leadership",
  "AI and Strategy",
  "AI and Operations",
  "AI and Supply Chain",
  "AI and Logistics",
  "AI and Manufacturing",
  "AI and Industry",
  "AI and Energy",
  "AI and Environment",
  "AI and Sustainability",
  "AI and Ethics",
  "AI and Society",
  "AI and Law",
  "AI and Policy",
  "AI and Governance",
  "AI and Regulation",
  "AI and Security",
  "AI and Privacy",
  "AI and Trust",
  "AI and Transparency",
  "AI and Accountability",
  "AI and Bias",
  "AI and Fairness",
  "AI and Inclusion",
  "AI and Diversity",
  "AI and Education",
  "AI and Training",
  "AI and Development",
  "AI and Research",
  "AI and Innovation",
  "AI and Creativity",
  "AI and Art",
  "AI and Music",
  "AI and Literature",
  "AI and Film",
  "AI and TV",
  "AI and Media",
  "AI and Games",
  "AI and Virtual Assistants",
  "AI and Chatbots",
  "AI and Smart Home",
  "AI and Personal Assistants",
  "AI and Work",
  "AI and Productivity",
  "AI and Collaboration",
  "AI and Project Management",
  "AI and Time Management",
  "AI and Decision Making",
  "AI and Problem Solving",
  "AI and Critical Thinking",
  "AI and Creativity",
  "AI and Innovation",
  "AI and Entrepreneurship",
  "AI and Startups",
  "AI and Business",
  "AI and Finance",
  "AI and Marketing",
  "AI and Sales",
  "AI and Customer Service",
  "AI and HR",
  "AI and Recruitment",
  "AI and Training",
  "AI and Management",
  "AI and Leadership",
  "AI and Strategy",
  "AI and Operations",
  "AI and Supply Chain",
  "AI and Logistics",
  "AI and Manufacturing",
  "AI and Industry",
  "AI and Energy",
  "AI and Environment",
  "AI and Sustainability",
  "AI and Ethics",
  "AI and Society",
  "AI and Law",
  "AI and Policy",
  "AI and Governance",
  "AI and Regulation",
  "AI and Security",
  "AI and Privacy",
  "AI and Trust",
  "AI and Transparency",
  "AI and Accountability",
  "AI and Bias",
  "AI and Fairness",
  "AI and Inclusion",
  "AI and Diversity"
]